INFO    2018-05-04 11:29:57,172 [main] com.m3.training.randomizer.TraineeRandomizer  - Team members: 20 [Brittany, Mathieu, Ash, Ramandeep, Andrew, Dalia, Brandon, Deepak, Jessica, Ruedi, Fahmida, Manoj, Ariana, Chad, Ahmed, Adrian, Joshua, Marc-Antoine, JeffX, Jino]
ERROR   2018-05-04 11:29:57,173 [main] com.m3.training.randomizer.TraineeRandomizer  - HELP!!! bad thing has happened
INFO    2018-05-04 11:29:57,180 [main] root  - Jino
INFO    2018-05-04 11:30:05,815 [main] root  - Ariana
INFO    2018-05-04 11:30:06,150 [main] root  - Brittany
INFO    2018-05-04 11:30:06,382 [main] root  - Manoj
INFO    2018-05-04 11:30:06,627 [main] root  - Ahmed
INFO    2018-05-04 11:32:28,633 [main] com.m3.training.randomizer.TraineeRandomizer  - Team members: 20 [Brittany, Mathieu, Ash, Ramandeep, Andrew, Dalia, Brandon, Deepak, Jessica, Ruedi, Fahmida, Manoj, Ariana, Chad, Ahmed, Adrian, Joshua, Marc-Antoine, JeffX, Jino]
ERROR   2018-05-04 11:32:28,634 [main] com.m3.training.randomizer.TraineeRandomizer  - HELP!!! bad thing has happened
INFO    2018-05-04 11:32:28,641 [main] root  - JeffX
INFO    2018-05-04 11:32:30,699 [main] root  - Ahmed
INFO    2018-05-04 11:32:30,889 [main] root  - Ariana
INFO    2018-05-04 11:32:31,050 [main] root  - Chad
INFO    2018-05-04 11:32:31,216 [main] root  - Ramandeep
INFO    2018-05-04 11:32:31,375 [main] root  - Brittany
INFO    2018-05-04 11:32:31,528 [main] root  - Fahmida
INFO    2018-05-04 11:41:26,927 [main] com.m3.training.randomizer.TraineeRandomizer  - Team members: 18 [Andrew:1, Jessica:3, Joshua:7, Brittany:9, Ramandeep:11, Manoj:15, Adrian:17, Brandon:2, Fahmida:4, Jeff:8, Ashutosh:10, Dalia:12, Chad:16, Marc-Antoine:18, Ariana:5, Deepak:13, Ahmed:6, Ruedi:14]
ERROR   2018-05-04 11:41:26,928 [main] com.m3.training.randomizer.TraineeRandomizer  - HELP!!! bad thing has happened
INFO    2018-05-04 11:41:26,936 [main] root  - Andrew:1
INFO    2018-05-04 11:44:26,217 [main] com.m3.training.randomizer.TraineeRandomizer  - Team members: 19 [FakeMember:99, Andrew:1, Jessica:3, Joshua:7, Brittany:9, Ramandeep:11, Manoj:15, Adrian:17, Brandon:2, Fahmida:4, Jeff:8, Ashutosh:10, Dalia:12, Chad:16, Marc-Antoine:18, Ariana:5, Deepak:13, Ahmed:6, Ruedi:14]
ERROR   2018-05-04 11:44:26,218 [main] com.m3.training.randomizer.TraineeRandomizer  - HELP!!! bad thing has happened
INFO    2018-05-04 11:44:26,225 [main] root  - Brandon:2
INFO    2018-05-04 11:45:11,527 [main] com.m3.training.randomizer.TraineeRandomizer  - Team members: 20 [Mathieu, Jino, Andrew:1, Jessica:3, Joshua:7, Brittany:9, Ramandeep:11, Manoj:15, Adrian:17, Brandon:2, Fahmida:4, Jeff:8, Ashutosh:10, Dalia:12, Chad:16, Marc-Antoine:18, Ariana:5, Deepak:13, Ahmed:6, Ruedi:14]
ERROR   2018-05-04 11:45:11,528 [main] com.m3.training.randomizer.TraineeRandomizer  - HELP!!! bad thing has happened
INFO    2018-05-04 11:45:11,535 [main] root  - Mathieu
INFO    2018-05-04 11:45:51,684 [main] com.m3.training.randomizer.TraineeRandomizer  - Team members: 21 [Mathieu:20, Mathieu:20, Jino:19, Andrew:1, Jessica:3, Joshua:7, Brittany:9, Ramandeep:11, Manoj:15, Adrian:17, Brandon:2, Fahmida:4, Jeff:8, Ashutosh:10, Dalia:12, Chad:16, Marc-Antoine:18, Ariana:5, Deepak:13, Ahmed:6, Ruedi:14]
ERROR   2018-05-04 11:45:51,685 [main] com.m3.training.randomizer.TraineeRandomizer  - HELP!!! bad thing has happened
INFO    2018-05-04 11:45:51,692 [main] root  - Ahmed:6
INFO    2018-05-04 11:46:17,007 [main] root  - Ariana:5
INFO    2018-05-04 11:46:17,525 [main] root  - Chad:16
INFO    2018-05-04 11:46:17,971 [main] root  - Ramandeep:11
INFO    2018-05-04 11:46:18,408 [main] root  - Dalia:12
INFO    2018-05-04 11:46:19,086 [main] root  - Jino:19
INFO    2018-05-04 11:46:19,604 [main] root  - Marc-Antoine:18
INFO    2018-05-04 11:46:20,384 [main] root  - Fahmida:4
INFO    2018-05-04 11:46:23,818 [main] root  - Mathieu:20
INFO    2018-05-04 11:46:42,111 [main] com.m3.training.randomizer.TraineeRandomizer  - Team members: 29 [Mathieu:20, Mathieu:20, Mathieu:20, Mathieu:20, Mathieu:20, Mathieu:20, Mathieu:20, Mathieu:20, Mathieu:20, Mathieu:20, Jino:19, Andrew:1, Jessica:3, Joshua:7, Brittany:9, Ramandeep:11, Manoj:15, Adrian:17, Brandon:2, Fahmida:4, Jeff:8, Ashutosh:10, Dalia:12, Chad:16, Marc-Antoine:18, Ariana:5, Deepak:13, Ahmed:6, Ruedi:14]
ERROR   2018-05-04 11:46:42,113 [main] com.m3.training.randomizer.TraineeRandomizer  - HELP!!! bad thing has happened
INFO    2018-05-04 11:46:42,119 [main] root  - Adrian:17
INFO    2018-05-04 11:46:45,012 [main] com.m3.training.randomizer.TraineeRandomizer  - Team members: 29 [Mathieu:20, Mathieu:20, Mathieu:20, Mathieu:20, Mathieu:20, Mathieu:20, Mathieu:20, Mathieu:20, Mathieu:20, Mathieu:20, Jino:19, Andrew:1, Jessica:3, Joshua:7, Brittany:9, Ramandeep:11, Manoj:15, Adrian:17, Brandon:2, Fahmida:4, Jeff:8, Ashutosh:10, Dalia:12, Chad:16, Marc-Antoine:18, Ariana:5, Deepak:13, Ahmed:6, Ruedi:14]
ERROR   2018-05-04 11:46:45,013 [main] com.m3.training.randomizer.TraineeRandomizer  - HELP!!! bad thing has happened
INFO    2018-05-04 11:46:45,020 [main] root  - Mathieu:20
INFO    2018-05-04 11:46:50,649 [main] root  - Adrian:17
INFO    2018-05-04 11:46:51,206 [main] root  - Mathieu:20
INFO    2018-05-04 11:46:51,549 [main] root  - Andrew:1
INFO    2018-05-04 11:46:52,413 [main] root  - Chad:16
INFO    2018-05-04 11:46:53,367 [main] root  - Brandon:2
ERROR   2018-05-29 13:05:55,775 [main] com.m3.training.randomizer.TraineeRandomizer  - Please enter a cofiguration file mode (ListFromXML, ListFromProperties, ListFromJson) and a configuration file.
ERROR   2018-05-29 13:07:29,614 [main] com.m3.training.listgen.ListFromJson  - The requested file could not be found: [prodsupportMay29.properties]
ERROR   2018-05-29 13:07:29,615 [main] com.m3.training.listgen.ListFromJson  - The requested file contains no data: [prodsupportMay29.properties]
INFO    2018-05-29 13:07:29,615 [main] com.m3.training.randomizer.TraineeRandomizer  - Team members: 0 []
ERROR   2018-05-29 13:07:29,615 [main] com.m3.training.randomizer.TraineeRandomizer  - HELP!!! bad thing has happened
ERROR   2018-05-29 13:09:22,462 [main] com.m3.training.listgen.ListFromJson  - The requested file could not be found: [prodsupportMay29.properties]
ERROR   2018-05-29 13:09:22,462 [main] com.m3.training.listgen.ListFromJson  - The requested file contains no data: [prodsupportMay29.properties]
INFO    2018-05-29 13:09:22,463 [main] com.m3.training.randomizer.TraineeRandomizer  - Team members: 0 []
ERROR   2018-05-29 13:09:22,463 [main] com.m3.training.randomizer.TraineeRandomizer  - HELP!!! bad thing has happened
ERROR   2018-05-29 13:09:57,220 [main] com.m3.training.listgen.ListFromJson  - The requested file could not be found: [prodsupportMay29.properties]
ERROR   2018-05-29 13:09:57,221 [main] com.m3.training.listgen.ListFromJson  - The requested file contains no data: [prodsupportMay29.properties]
INFO    2018-05-29 13:09:57,221 [main] com.m3.training.randomizer.TraineeRandomizer  - Team members: 0 []
ERROR   2018-05-29 13:09:57,221 [main] com.m3.training.randomizer.TraineeRandomizer  - HELP!!! bad thing has happened
INFO    2018-05-29 13:10:23,803 [main] com.m3.training.randomizer.TraineeRandomizer  - Team members: 20 [Brittany, Mathieu, Ash, Ramandeep, Andrew, Dalia, Brandon, Deepak, Jessica, Ruedi, Fahmida, Manoj, Ariana, Chad, Ahmed, Adrian, Joshua, Marc-Antoine, JeffX, Jino]
ERROR   2018-05-29 13:10:23,804 [main] com.m3.training.randomizer.TraineeRandomizer  - HELP!!! bad thing has happened
INFO    2018-05-29 13:10:23,814 [main] root  - Dalia
INFO    2018-05-29 13:10:41,758 [main] com.m3.training.randomizer.TraineeRandomizer  - Team members: 20 [Brittany, Mathieu, Ash, Ramandeep, Andrew, Dalia, Brandon, Deepak, Jessica, Ruedi, Fahmida, Manoj, Ariana, Chad, Ahmed, Adrian, Joshua, Marc-Antoine, JeffX, Jino]
INFO    2018-05-29 13:10:41,766 [main] root  - Dalia
INFO    2018-05-29 16:31:27,337 [main] com.m3.training.randomizer.TraineeRandomizer  - Team members: 16 [Rami, Ronak, Rida, Connor, Luke, Sean, Kevin, Mathew, Laura, Manuel, Maya, Collin, Eric, Mark, Dylan, Vinko]
INFO    2018-05-29 16:31:27,347 [main] root  - Connor
INFO    2018-05-29 16:34:19,163 [main] root  - Ronak
INFO    2018-05-29 16:37:02,475 [main] root  - Laura
INFO    2018-05-29 16:39:51,116 [main] root  - Vinko
INFO    2018-05-29 16:41:27,423 [main] root  - Collin
INFO    2018-05-29 16:42:49,153 [main] root  - Manuel
INFO    2018-05-29 16:45:15,972 [main] root  - Maya
INFO    2018-05-29 16:48:12,226 [main] root  - Sean
INFO    2018-05-29 16:48:13,679 [main] root  - Mathew
INFO    2018-05-29 16:48:14,954 [main] root  - Mark
INFO    2018-05-29 16:48:17,003 [main] root  - Luke
INFO    2018-05-30 10:56:43,227 [main] com.m3.training.randomizer.TraineeRandomizer  - Team members: 16 [Rami, Ronak, Rida, Connor, Luke, Sean, Kevin, Mathew, Laura, Manuel, Maya, Collin, Eric, Mark, Dylan, Vinko]
INFO    2018-05-30 10:56:43,244 [main] root  - Collin
INFO    2018-05-30 10:56:46,314 [main] com.m3.training.randomizer.TraineeRandomizer  - Team members: 16 [Rami, Ronak, Rida, Connor, Luke, Sean, Kevin, Mathew, Laura, Manuel, Maya, Collin, Eric, Mark, Dylan, Vinko]
INFO    2018-05-30 10:56:46,322 [main] root  - Vinko
INFO    2018-05-30 10:57:02,625 [main] root  - Dylan
INFO    2018-05-30 10:57:15,908 [main] root  - Connor
INFO    2018-05-30 10:57:19,399 [main] root  - Rida
INFO    2018-05-30 10:57:28,782 [main] root  - Rami
INFO    2018-05-30 10:57:30,852 [main] root  - Manuel
INFO    2018-05-30 10:57:41,363 [main] root  - Ronak
INFO    2018-05-30 10:57:43,078 [main] root  - Eric
INFO    2018-05-30 10:57:59,372 [main] root  - Luke
INFO    2018-05-30 10:58:00,838 [main] root  - Kevin
INFO    2018-05-30 10:58:11,044 [main] root  - Maya
INFO    2018-05-30 10:58:12,756 [main] root  - Laura
INFO    2018-05-30 10:58:18,594 [main] root  - Mark
INFO    2018-05-30 10:58:20,123 [main] root  - Vinko
INFO    2018-05-30 10:58:29,003 [main] root  - Mathew
INFO    2018-05-30 10:58:30,610 [main] root  - Sean
INFO    2018-05-30 16:18:02,640 [main] com.m3.training.randomizer.TraineeRandomizer  - Team members: 16 [Rami, Ronak, Rida, Connor, Luke, Sean, Kevin, Mathew, Laura, Manuel, Maya, Collin, Eric, Mark, Dylan, Vinko]
INFO    2018-05-30 16:18:02,648 [main] root  - Luke
INFO    2018-05-30 16:18:32,037 [main] root  - Laura
INFO    2018-05-30 16:18:57,908 [main] root  - Rida
INFO    2018-05-30 16:19:33,524 [main] root  - Manuel
INFO    2018-05-30 16:20:00,992 [main] root  - Maya
INFO    2018-05-30 16:20:31,035 [main] root  - Collin
INFO    2018-05-30 16:20:50,645 [main] root  - Ronak
INFO    2018-05-30 16:21:36,541 [main] root  - Mark
INFO    2018-05-30 16:22:24,392 [main] root  - Eric
INFO    2018-05-30 16:22:46,202 [main] root  - Connor
INFO    2018-05-30 16:23:05,661 [main] root  - Sean
INFO    2018-05-30 16:23:30,584 [main] root  - Mathew
INFO    2018-05-30 16:23:50,331 [main] root  - Dylan
INFO    2018-05-30 16:24:12,035 [main] root  - Rami
INFO    2018-05-30 16:24:40,501 [main] root  - Vinko
INFO    2018-05-30 16:24:57,640 [main] root  - Kevin
INFO    2018-05-30 16:56:24,287 [main] com.m3.training.randomizer.TraineeRandomizer  - Team members: 16 [Rami, Ronak, Rida, Connor, Luke, Sean, Kevin, Mathew, Laura, Manuel, Maya, Collin, Eric, Mark, Dylan, Vinko]
INFO    2018-05-30 16:56:24,296 [main] root  - Collin
INFO    2018-05-31 11:02:06,139 [main] com.m3.training.randomizer.TraineeRandomizer  - Team members: 16 [Rami, Ronak, Rida, Connor, Luke, Sean, Kevin, Mathew, Laura, Manuel, Maya, Collin, Eric, Mark, Dylan, Vinko]
INFO    2018-05-31 11:02:06,151 [main] root  - Laura
INFO    2018-05-31 11:02:08,901 [main] com.m3.training.randomizer.TraineeRandomizer  - Team members: 16 [Rami, Ronak, Rida, Connor, Luke, Sean, Kevin, Mathew, Laura, Manuel, Maya, Collin, Eric, Mark, Dylan, Vinko]
INFO    2018-05-31 11:02:08,910 [main] root  - Sean
INFO    2018-05-31 11:02:19,100 [main] com.m3.training.randomizer.TraineeRandomizer  - Team members: 16 [Rami, Ronak, Rida, Connor, Luke, Sean, Kevin, Mathew, Laura, Manuel, Maya, Collin, Eric, Mark, Dylan, Vinko]
INFO    2018-05-31 11:02:19,108 [main] root  - Eric
INFO    2018-05-31 11:02:21,625 [main] root  - Mathew
INFO    2018-05-31 11:02:23,007 [main] root  - Maya
INFO    2018-05-31 11:02:29,752 [main] root  - Dylan
INFO    2018-05-31 11:02:31,594 [main] root  - Mark
INFO    2018-05-31 11:02:35,475 [main] root  - Kevin
INFO    2018-05-31 11:02:55,502 [main] root  - Ronak
INFO    2018-05-31 11:03:01,500 [main] root  - Luke
INFO    2018-05-31 11:03:02,981 [main] root  - Connor
INFO    2018-05-31 11:03:13,109 [main] root  - Manuel
INFO    2018-05-31 11:03:17,404 [main] root  - Collin
INFO    2018-05-31 11:03:24,735 [main] root  - Sean
INFO    2018-05-31 11:03:26,172 [main] root  - Laura
INFO    2018-05-31 11:03:35,492 [main] root  - Rida
INFO    2018-05-31 11:03:36,773 [main] root  - Rami
INFO    2018-05-31 11:03:37,547 [main] root  - Vinko
INFO    2018-06-07 14:01:03,407 [main] com.m3.training.randomizer.TraineeRandomizer  - Team members: 16 [Rami, Ronak, Rida, Connor, Luke, Sean, Kevin, Mathew, Laura, Manuel, Maya, Collin, Eric, Mark, Dylan, Vinko]
INFO    2018-06-07 14:01:03,418 [main] root  - Dylan
INFO    2018-06-07 14:01:18,752 [main] root  - Mark
INFO    2018-06-07 14:01:22,106 [main] root  - Collin
INFO    2018-06-07 14:01:24,382 [main] root  - Mathew
INFO    2018-06-07 14:01:26,473 [main] root  - Connor
INFO    2018-06-07 14:01:28,067 [main] root  - Rida
INFO    2018-06-07 14:01:30,295 [main] root  - Rami
INFO    2018-06-07 14:01:31,940 [main] root  - Kevin
INFO    2018-06-07 14:01:37,901 [main] root  - Manuel
INFO    2018-06-07 14:01:39,028 [main] root  - Maya
INFO    2018-06-07 14:01:40,746 [main] root  - Vinko
INFO    2018-06-07 14:01:42,079 [main] root  - Sean
INFO    2018-06-07 14:01:49,122 [main] root  - Laura
INFO    2018-06-07 14:01:50,644 [main] root  - Ronak
INFO    2018-06-07 14:01:54,640 [main] root  - Eric
INFO    2018-06-07 14:01:55,921 [main] root  - Luke
INFO    2018-06-11 16:13:39,571 [main] com.m3.training.randomizer.TraineeRandomizer  - Team members: 16 [Rami, Ronak, Rida, Connor, Luke, Kevin, Mathew, Laura, Manuel, Maya, Collin, Eric, Mark, Samuel, Dylan, Vinko]
INFO    2018-06-11 16:13:39,587 [main] root  - Maya
INFO    2018-06-11 16:47:06,542 [main] com.m3.training.randomizer.TraineeRandomizer  - Team members: 17 [Rami, Ronak, Rida, Elena, Connor, Luke, Kevin, Mathew, Laura, Manuel, Maya, Collin, Eric, Mark, Samuel, Dylan, Vinko]
INFO    2018-06-11 16:47:06,551 [main] root  - Mark
INFO    2018-06-12 14:40:40,218 [main] com.m3.training.randomizer.TraineeRandomizer  - Team members: 16 [Rami, Ronak, Rida, Connor, Luke, Kevin, Mathew, Laura, Manuel, Maya, Collin, Eric, Mark, Samuel, Dylan, Vinko]
INFO    2018-06-12 14:40:40,231 [main] root  - Mathew
INFO    2018-06-12 14:40:46,415 [main] root  - Dylan
INFO    2018-06-12 14:40:58,583 [main] root  - Eric
INFO    2018-06-12 14:41:00,657 [main] root  - Kevin
INFO    2018-06-12 14:41:03,483 [main] root  - Rida
INFO    2018-06-12 14:41:05,412 [main] root  - Laura
INFO    2018-06-12 14:41:08,948 [main] root  - Manuel
INFO    2018-06-12 14:41:10,786 [main] root  - Maya
INFO    2018-06-12 14:41:20,603 [main] root  - Vinko
INFO    2018-06-12 14:41:22,767 [main] root  - Mark
INFO    2018-06-12 14:41:25,540 [main] root  - Connor
INFO    2018-06-12 14:41:27,215 [main] root  - Samuel
INFO    2018-06-12 14:41:29,221 [main] root  - Luke
INFO    2018-06-12 14:41:31,348 [main] root  - Rami
INFO    2018-06-12 14:41:33,602 [main] root  - Collin
INFO    2018-06-12 14:41:35,198 [main] root  - Ronak
INFO    2018-06-13 16:07:49,670 [main] com.m3.training.randomizer.TraineeRandomizer  - Team members: 16 [Rami, Ronak, Rida, Connor, Luke, Kevin, Mathew, Laura, Manuel, Maya, Collin, Eric, Mark, Samuel, Dylan, Vinko]
INFO    2018-06-13 16:07:49,691 [main] root  - Collin
INFO    2018-06-13 16:28:23,162 [main] root  - Ronak
INFO    2018-06-13 16:28:34,634 [main] root  - Rida
INFO    2018-06-14 13:55:10,393 [main] com.m3.training.randomizer.TraineeRandomizer  - Team members: 16 [Rami, Ronak, Rida, Connor, Luke, Kevin, Mathew, Laura, Manuel, Maya, Collin, Eric, Mark, Samuel, Dylan, Vinko]
INFO    2018-06-14 13:55:10,409 [main] root  - Laura
INFO    2018-06-14 13:55:21,220 [main] root  - Kevin
INFO    2018-06-14 14:21:08,585 [main] root  - Ronak
INFO    2018-06-14 16:09:42,751 [main] root  - Rami
INFO    2018-06-15 09:42:08,431 [main] com.m3.training.randomizer.TraineeRandomizer  - Team members: 16 [Rami, Ronak, Rida, Connor, Luke, Kevin, Mathew, Laura, Manuel, Maya, Collin, Eric, Mark, Samuel, Dylan, Vinko]
INFO    2018-06-15 09:42:08,447 [main] root  - Manuel
INFO    2018-06-15 09:44:18,914 [main] root  - Laura
INFO    2018-06-15 09:45:37,305 [main] root  - Luke
INFO    2018-06-20 09:18:33,093 [main] com.m3.training.randomizer.TraineeRandomizer  - Team members: 16 [Rami, Ronak, Rida, Connor, Luke, Kevin, Mathew, Laura, Manuel, Maya, Collin, Eric, Mark, Samuel, Dylan, Vinko]
INFO    2018-06-20 09:18:33,113 [main] root  - Luke
INFO    2018-06-20 09:38:07,977 [main] root  - Rami
INFO    2018-06-20 11:29:43,960 [main] root  - Kevin
INFO    2018-06-21 11:20:15,566 [main] com.m3.training.randomizer.TraineeRandomizer  - Team members: 16 [Rami, Ronak, Rida, Connor, Luke, Kevin, Mathew, Laura, Manuel, Maya, Collin, Eric, Mark, Samuel, Dylan, Vinko]
INFO    2018-06-21 11:20:15,574 [main] root  - Rami
INFO    2018-06-22 11:14:16,551 [main] com.m3.training.randomizer.TraineeRandomizer  - Team members: 16 [Rami, Ronak, Rida, Connor, Luke, Kevin, Mathew, Laura, Manuel, Maya, Collin, Eric, Mark, Samuel, Dylan, Vinko]
INFO    2018-06-22 11:14:16,564 [main] root  - Maya
INFO    2018-06-22 11:28:43,510 [main] com.m3.training.randomizer.TraineeRandomizer  - Team members: 16 [Rami, Ronak, Rida, Connor, Luke, Kevin, Mathew, Laura, Manuel, Maya, Collin, Eric, Mark, Samuel, Dylan, Vinko]
INFO    2018-06-22 11:28:43,519 [main] root  - Collin
INFO    2018-06-25 09:42:56,777 [main] com.m3.training.randomizer.TraineeRandomizer  - Team members: 16 [Rami, Ronak, Rida, Connor, Luke, Kevin, Mathew, Laura, Manuel, Maya, Collin, Eric, Mark, Samuel, Dylan, Vinko]
INFO    2018-06-25 09:42:56,791 [main] root  - Ronak
INFO    2018-06-25 09:43:32,486 [main] com.m3.training.randomizer.TraineeRandomizer  - Team members: 9 [Nora, Danielle, Ella, Megan, Nicole, Bridget, Chynna, Rochel, Yacine]
INFO    2018-06-25 09:43:32,495 [main] root  - Nicole
INFO    2018-06-25 09:48:23,396 [main] root  - Rochel
INFO    2018-06-25 09:51:34,271 [main] root  - Ella
INFO    2018-06-25 09:53:18,084 [main] root  - Danielle
INFO    2018-06-25 10:01:02,794 [main] root  - Nora
INFO    2018-06-25 10:03:52,040 [main] root  - Chynna
INFO    2018-06-25 10:06:20,775 [main] root  - Megan
INFO    2018-06-25 10:10:13,483 [main] root  - Bridget
INFO    2018-06-25 10:13:53,584 [main] root  - Yacine
INFO    2018-06-26 09:36:42,807 [main] com.m3.training.randomizer.TraineeRandomizer  - Team members: 9 [Bridget, Nora, Danielle, Ella, Megan, Nicole, Chynna, Rochel, Yacine]
INFO    2018-06-26 09:36:42,821 [main] root  - Ella
INFO    2018-06-26 09:41:13,781 [main] root  - Chynna
INFO    2018-06-26 09:46:24,023 [main] root  - Bridget
INFO    2018-06-26 09:46:26,566 [main] root  - Yacine
INFO    2018-06-26 11:39:29,955 [main] com.m3.training.randomizer.TraineeRandomizer  - Team members: 9 [Bridget, Nora, Danielle, Ella, Megan, Nicole, Chynna, Rochel, Yacine]
INFO    2018-06-26 11:39:29,974 [main] root  - Bridget
INFO    2018-06-26 11:39:31,653 [main] root  - Danielle
INFO    2018-06-26 11:39:33,556 [main] root  - Chynna
INFO    2018-06-26 11:39:35,192 [main] root  - Megan
INFO    2018-06-26 11:39:36,834 [main] root  - Nora
INFO    2018-06-26 11:39:37,971 [main] root  - Rochel
INFO    2018-06-26 11:39:39,731 [main] root  - Yacine
INFO    2018-06-26 11:39:42,191 [main] root  - Ella
INFO    2018-06-26 11:39:43,166 [main] root  - Nicole
INFO    2018-06-26 14:55:22,678 [main] com.m3.training.randomizer.TraineeRandomizer  - Team members: 9 [Bridget, Nora, Danielle, Ella, Megan, Nicole, Chynna, Rochel, Yacine]
INFO    2018-06-26 14:55:22,692 [main] root  - Chynna
INFO    2018-06-26 14:55:24,709 [main] root  - Danielle
INFO    2018-06-26 14:55:28,487 [main] root  - Nicole
INFO    2018-06-26 14:55:29,226 [main] root  - Yacine
INFO    2018-06-26 14:55:33,216 [main] root  - Nora
INFO    2018-06-26 14:55:36,200 [main] root  - Rochel
INFO    2018-06-26 14:55:44,833 [main] root  - Megan
INFO    2018-06-26 14:55:46,005 [main] root  - Bridget
INFO    2018-06-26 14:55:46,637 [main] root  - Ella
INFO    2018-06-26 15:18:29,035 [main] com.m3.training.randomizer.TraineeRandomizer  - Team members: 9 [Bridget, Nora, Danielle, Ella, Megan, Nicole, Chynna, Rochel, Yacine]
INFO    2018-06-26 15:18:29,043 [main] root  - Nicole
INFO    2018-06-26 16:42:42,479 [main] com.m3.training.randomizer.TraineeRandomizer  - Team members: 9 [Bridget, Nora, Danielle, Ella, Megan, Nicole, Chynna, Rochel, Yacine]
INFO    2018-06-26 16:42:42,510 [main] root  - Nicole
INFO    2018-06-26 16:42:46,292 [main] root  - Rochel
INFO    2018-06-26 16:42:50,233 [main] root  - Chynna
INFO    2018-06-26 16:42:51,017 [main] root  - Danielle
INFO    2018-06-26 16:42:53,642 [main] root  - Yacine
INFO    2018-06-26 16:42:54,425 [main] root  - Ella
INFO    2018-06-26 16:42:56,131 [main] root  - Bridget
INFO    2018-06-26 16:42:56,925 [main] root  - Nora
INFO    2018-06-26 16:42:58,703 [main] root  - Megan
INFO    2018-06-26 17:04:07,461 [main] com.m3.training.randomizer.TraineeRandomizer  - Team members: 9 [Bridget, Nora, Danielle, Ella, Megan, Nicole, Chynna, Rochel, Yacine]
INFO    2018-06-26 17:04:07,469 [main] root  - Ella
INFO    2018-06-27 09:58:20,883 [main] com.m3.training.randomizer.TraineeRandomizer  - Team members: 9 [Bridget, Nora, Danielle, Ella, Megan, Nicole, Chynna, Rochel, Yacine]
INFO    2018-06-27 09:58:20,893 [main] root  - Chynna
INFO    2018-06-27 09:58:29,808 [main] root  - Ella
INFO    2018-06-27 09:58:40,285 [main] root  - Nicole
INFO    2018-06-27 09:58:41,401 [main] root  - Danielle
INFO    2018-06-27 09:58:46,647 [main] root  - Bridget
INFO    2018-06-27 09:58:50,078 [main] root  - Nora
INFO    2018-06-27 09:58:53,223 [main] root  - Megan
INFO    2018-06-27 09:58:57,649 [main] root  - Yacine
INFO    2018-06-27 09:59:04,074 [main] root  - Rochel
INFO    2018-06-27 11:13:27,358 [main] com.m3.training.randomizer.TraineeRandomizer  - Team members: 9 [Bridget, Nora, Danielle, Ella, Megan, Nicole, Chynna, Rochel, Yacine]
INFO    2018-06-27 11:13:27,368 [main] root  - Yacine
INFO    2018-06-27 11:21:38,873 [main] root  - Nora
INFO    2018-06-27 11:31:45,805 [main] root  - Bridget
INFO    2018-06-27 11:36:41,466 [main] root  - Danielle
INFO    2018-06-27 11:43:40,679 [main] root  - Ella
INFO    2018-06-27 11:47:26,313 [main] root  - Nicole
INFO    2018-06-27 11:47:29,477 [main] root  - Chynna
INFO    2018-06-27 11:47:31,065 [main] root  - Rochel
INFO    2018-06-27 11:47:35,345 [main] root  - Megan
INFO    2018-06-27 16:04:00,912 [main] com.m3.training.randomizer.TraineeRandomizer  - Team members: 9 [Bridget, Nora, Danielle, Ella, Megan, Nicole, Chynna, Rochel, Yacine]
INFO    2018-06-27 16:04:00,927 [main] root  - Bridget
INFO    2018-06-27 16:04:08,773 [main] root  - Ella
INFO    2018-06-27 16:04:09,786 [main] root  - Yacine
INFO    2018-06-27 16:04:22,626 [main] root  - Nora
INFO    2018-06-27 16:04:23,185 [main] root  - Chynna
INFO    2018-06-27 16:04:27,962 [main] root  - Rochel
INFO    2018-06-27 16:04:28,399 [main] root  - Nicole
INFO    2018-06-27 16:04:34,430 [main] root  - Megan
INFO    2018-06-27 16:04:35,009 [main] root  - Danielle
INFO    2018-06-27 16:53:54,656 [main] com.m3.training.randomizer.TraineeRandomizer  - Team members: 9 [Bridget, Nora, Danielle, Ella, Megan, Nicole, Chynna, Rochel, Yacine]
INFO    2018-06-27 16:53:54,665 [main] root  - Danielle
INFO    2018-06-27 16:54:52,525 [main] root  - Megan
INFO    2018-06-27 16:55:22,570 [main] root  - Yacine
INFO    2018-06-27 16:55:46,828 [main] root  - Rochel
INFO    2018-06-27 16:55:57,465 [main] root  - Nora
INFO    2018-06-27 16:56:12,044 [main] root  - Chynna
INFO    2018-06-27 16:56:35,117 [main] root  - Ella
INFO    2018-06-27 16:56:46,572 [main] root  - Bridget
INFO    2018-06-27 16:57:06,907 [main] root  - Nicole
INFO    2018-06-28 09:45:17,974 [main] com.m3.training.randomizer.TraineeRandomizer  - Team members: 9 [Bridget, Nora, Danielle, Ella, Megan, Nicole, Chynna, Rochel, Yacine]
INFO    2018-06-28 09:45:17,986 [main] root  - Nora
INFO    2018-06-28 10:08:37,345 [main] root  - Rochel
INFO    2018-06-28 10:23:46,870 [main] root  - Ella
INFO    2018-06-28 10:33:39,420 [main] root  - Danielle
INFO    2018-06-28 10:50:57,123 [main] root  - Megan
INFO    2018-06-28 11:05:25,945 [main] root  - Yacine
INFO    2018-06-28 11:23:25,550 [main] root  - Chynna
INFO    2018-06-28 11:38:22,008 [main] root  - Nicole
INFO    2018-06-28 11:39:12,512 [main] root  - Bridget
INFO    2018-07-02 16:01:18,219 [main] com.m3.training.randomizer.TraineeRandomizer  - Team members: 9 [Bridget, Nora, Danielle, Ella, Megan, Nicole, Chynna, Rochel, Yacine]
INFO    2018-07-02 16:01:18,236 [main] root  - Rochel
INFO    2018-07-02 16:01:23,694 [main] root  - Yacine
INFO    2018-07-02 16:01:25,556 [main] root  - Nora
INFO    2018-07-02 16:01:26,581 [main] root  - Bridget
INFO    2018-07-02 16:01:27,656 [main] root  - Megan
INFO    2018-07-02 16:01:28,392 [main] root  - Danielle
INFO    2018-07-02 16:01:29,537 [main] root  - Ella
INFO    2018-07-02 16:01:30,360 [main] root  - Nicole
INFO    2018-07-02 16:01:31,521 [main] root  - Chynna
INFO    2018-07-06 09:54:07,387 [main] com.m3.training.randomizer.TraineeRandomizer  - Team members: 9 [Bridget, Nora, Danielle, Ella, Megan, Nicole, Chynna, Rochel, Yacine]
INFO    2018-07-06 09:54:07,408 [main] root  - Bridget
INFO    2018-07-06 09:54:12,690 [main] root  - Danielle
INFO    2018-07-06 09:54:15,516 [main] root  - Rochel
INFO    2018-07-06 09:54:18,193 [main] root  - Yacine
INFO    2018-07-19 16:07:22,522 [main] com.m3.training.randomizer.TraineeRandomizer  - Team members: 31 [Neil, Wissal, Navneet, Lorenka, Brandon, NicolasD, Darshan, Daniella, Sureka, Zion, Andreas, Ramanjit, NicolasK, Charles, Kashif, Siying, Raman, Saif, Valeriya, Faezeh, Vikas, Michael, Saurabh, Tojin, Lakshay, Zaheenabanu, Carlee, Emma, Shida, Sharanya, Vedanshi]
INFO    2018-07-19 16:07:22,541 [main] root  - Carlee
INFO    2018-07-19 16:07:37,714 [main] root  - Lakshay
INFO    2018-07-19 16:16:38,786 [main] com.m3.training.randomizer.TraineeRandomizer  - Team members: 31
INFO    2018-07-19 16:16:38,789 [main] com.m3.training.randomizer.TraineeRandomizer  - ]
INFO    2018-07-19 16:16:38,798 [main] root  - Emma
INFO    2018-07-19 16:16:59,912 [main] com.m3.training.randomizer.TraineeRandomizer  - Team members: 31
INFO    2018-07-19 16:16:59,915 [main] com.m3.training.randomizer.TraineeRandomizer  - [Neil,Wissal,Navneet,Lorenka,Brandon,NicolasD,Darshan,Daniella,Sureka,Zion,Andreas,Ramanjit,NicolasK,Charles,Kashif,Siying,Raman,Saif,Valeriya,Faezeh,Vikas,Michael,Saurabh,Tojin,Lakshay,Zaheenabanu,Carlee,Emma,Shida,Sharanya,Vedanshi]
INFO    2018-07-19 16:16:59,927 [main] root  - NicolasD
INFO    2018-07-19 16:18:02,943 [main] com.m3.training.randomizer.TraineeRandomizer  - Team members: 31
INFO    2018-07-19 16:18:02,947 [main] com.m3.training.randomizer.TraineeRandomizer  - [Neil, Neil, Wissal, Neil, Wissal, Navneet, Neil, Wissal, Navneet, Lorenka, Neil, Wissal, Navneet, Lorenka, Brandon, Neil, Wissal, Navneet, Lorenka, Brandon, NicolasD, Neil, Wissal, Navneet, Lorenka, Brandon, NicolasD, Darshan, Neil, Wissal, Navneet, Lorenka, Brandon, NicolasD, Darshan, Daniella, Neil, Wissal, Navneet, Lorenka, Brandon, NicolasD, Darshan, Daniella, Sureka, Neil, Wissal, Navneet, Lorenka, Brandon, NicolasD, Darshan, Daniella, Sureka, Zion, 
Andreas, Andreas, Ramanjit, Andreas, Ramanjit, NicolasK, Andreas, Ramanjit, NicolasK, Charles, Andreas, Ramanjit, NicolasK, Charles, Kashif, Andreas, Ramanjit, NicolasK, Charles, Kashif, Siying, Andreas, Ramanjit, NicolasK, Charles, Kashif, Siying, Raman, Andreas, Ramanjit, NicolasK, Charles, Kashif, Siying, Raman, Saif, Andreas, Ramanjit, NicolasK, Charles, Kashif, Siying, Raman, Saif, Valeriya, Andreas, Ramanjit, NicolasK, Charles, Kashif, Siying, Raman, Saif, Valeriya, Faezeh, 
Vikas, Vikas, Michael, Vikas, Michael, Saurabh, Vikas, Michael, Saurabh, Tojin, Vikas, Michael, Saurabh, Tojin, Lakshay, Vikas, Michael, Saurabh, Tojin, Lakshay, Zaheenabanu, Vikas, Michael, Saurabh, Tojin, Lakshay, Zaheenabanu, Carlee, Vikas, Michael, Saurabh, Tojin, Lakshay, Zaheenabanu, Carlee, Emma, Vikas, Michael, Saurabh, Tojin, Lakshay, Zaheenabanu, Carlee, Emma, Shida, Vikas, Michael, Saurabh, Tojin, Lakshay, Zaheenabanu, Carlee, Emma, Shida, Sharanya, 
Vedanshi]
INFO    2018-07-19 16:18:02,957 [main] root  - Valeriya
INFO    2018-07-19 16:19:15,021 [main] com.m3.training.randomizer.TraineeRandomizer  - Team members: 31
INFO    2018-07-19 16:19:15,028 [main] com.m3.training.randomizer.TraineeRandomizer  - [Neil, Wissal, Navneet, Lorenka, Brandon, NicolasD, Darshan, Daniella, Sureka, Zion, 
Andreas, Ramanjit, NicolasK, Charles, Kashif, Siying, Raman, Saif, Valeriya, Faezeh, 
Vikas, Michael, Saurabh, Tojin, Lakshay, Zaheenabanu, Carlee, Emma, Shida, Sharanya, 
]
INFO    2018-07-19 16:19:15,038 [main] root  - Sureka
INFO    2018-07-19 16:20:30,121 [main] com.m3.training.randomizer.TraineeRandomizer  - Team members: 31
INFO    2018-07-19 16:20:30,124 [main] com.m3.training.randomizer.TraineeRandomizer  - Neil, Wissal, Navneet, Lorenka, Brandon, NicolasD, Darshan, Daniella, Sureka, Zion, 
Andreas, Ramanjit, NicolasK, Charles, Kashif, Siying, Raman, Saif, Valeriya, Faezeh, 
Vikas, Michael, Saurabh, Tojin, Lakshay, Zaheenabanu, Carlee, Emma, Shida, Sharanya, 

INFO    2018-07-19 16:20:30,132 [main] root  - Andreas
INFO    2018-07-19 16:21:35,085 [main] com.m3.training.randomizer.TraineeRandomizer  - Team members: 31
INFO    2018-07-19 16:21:35,089 [main] com.m3.training.randomizer.TraineeRandomizer  - Neil, Wissal, Navneet, Lorenka, Brandon, NicolasD, Darshan, Daniella, Sureka, Zion, 
Andreas, Ramanjit, NicolasK, Charles, Kashif, Siying, Raman, Saif, Valeriya, Faezeh, 
Vikas, Michael, Saurabh, Tojin, Lakshay, Zaheenabanu, Carlee, Emma, Shida, Sharanya, 
Vedanshi
INFO    2018-07-19 16:21:35,104 [main] root  - NicolasK
INFO    2018-07-19 16:23:06,279 [main] com.m3.training.randomizer.TraineeRandomizer  - Team members: 31
INFO    2018-07-19 16:23:06,282 [main] com.m3.training.randomizer.TraineeRandomizer  - Andreas, Brandon, Carlee, Charles, Daniella, Darshan, Emma, Faezeh, Kashif, Lakshay, 
Lorenka, Michael, Navneet, Neil, NicolasD, NicolasK, Raman, Ramanjit, Saif, Saurabh, 
Sharanya, Shida, Siying, Sureka, Tojin, Valeriya, Vedanshi, Vikas, Wissal, Zaheenabanu, 
Zion
INFO    2018-07-19 16:23:06,291 [main] root  - Selection: Vedanshi
INFO    2018-07-19 16:23:27,251 [main] root  - Selection: Valeriya
INFO    2018-07-19 16:23:28,241 [main] root  - Selection: Saurabh
INFO    2018-07-19 16:23:29,105 [main] root  - Selection: Ramanjit
INFO    2018-07-19 16:23:29,946 [main] root  - Selection: Zion
INFO    2018-07-19 16:23:30,873 [main] root  - Selection: Navneet
INFO    2018-07-19 16:23:31,857 [main] root  - Selection: Darshan
INFO    2018-07-19 16:23:32,857 [main] root  - Selection: Kashif
INFO    2018-07-19 16:23:33,793 [main] root  - Selection: Faezeh
INFO    2018-07-19 16:23:34,722 [main] root  - Selection: Zaheenabanu
INFO    2018-07-19 16:23:35,593 [main] root  - Selection: Tojin
INFO    2018-07-19 16:23:36,497 [main] root  - Selection: Daniella
INFO    2018-07-19 16:23:37,417 [main] root  - Selection: Brandon
INFO    2018-07-19 16:23:38,345 [main] root  - Selection: Sureka
INFO    2018-07-19 16:23:39,328 [main] root  - Selection: Neil
INFO    2018-07-19 16:23:40,321 [main] root  - Selection: Wissal
INFO    2018-07-19 16:23:41,393 [main] root  - Selection: NicolasD
INFO    2018-07-19 16:23:42,393 [main] root  - Selection: Vikas
INFO    2018-07-19 16:23:43,345 [main] root  - Selection: Carlee
INFO    2018-07-19 16:23:44,346 [main] root  - Selection: Siying
INFO    2018-07-19 16:23:45,329 [main] root  - Selection: Andreas
INFO    2018-07-19 16:23:46,497 [main] root  - Selection: Lorenka
INFO    2018-07-19 16:23:47,657 [main] root  - Selection: Sharanya
INFO    2018-07-19 16:23:48,650 [main] root  - Selection: Lakshay
INFO    2018-07-19 16:23:49,737 [main] root  - Selection: Saif
INFO    2018-07-19 16:23:50,754 [main] root  - Selection: Michael
INFO    2018-07-19 16:23:51,816 [main] root  - Selection: Charles
INFO    2018-07-19 16:23:52,825 [main] root  - Selection: NicolasK
INFO    2018-07-19 16:23:53,857 [main] root  - Selection: Shida
INFO    2018-07-19 16:23:54,944 [main] root  - Selection: Emma
INFO    2018-07-19 16:23:57,529 [main] root  - Selection: Raman
ERROR   2018-07-23 08:22:42,083 [main] com.m3.training.listgen.ListFromJson  - The requested file could not be found: [resources/prosupportJuly23.properties]
ERROR   2018-07-23 08:22:42,087 [main] com.m3.training.listgen.ListFromJson  - The requested file contains no data: [resources/prosupportJuly23.properties]
INFO    2018-07-23 08:22:42,088 [main] com.m3.training.randomizer.TraineeRandomizer  - Team members: 0
INFO    2018-07-23 08:22:42,088 [main] com.m3.training.randomizer.TraineeRandomizer  - 
ERROR   2018-07-23 08:23:02,858 [main] com.m3.training.listgen.ListFromJson  - The requested file could not be found: [prosupportJuly23.properties]
ERROR   2018-07-23 08:23:02,861 [main] com.m3.training.listgen.ListFromJson  - The requested file contains no data: [prosupportJuly23.properties]
INFO    2018-07-23 08:23:02,861 [main] com.m3.training.randomizer.TraineeRandomizer  - Team members: 0
INFO    2018-07-23 08:23:02,862 [main] com.m3.training.randomizer.TraineeRandomizer  - 
ERROR   2018-07-23 08:23:21,003 [main] com.m3.training.listgen.ListFromJson  - The requested file could not be found: [prodsupportJuly23.properties]
ERROR   2018-07-23 08:23:21,006 [main] com.m3.training.listgen.ListFromJson  - The requested file contains no data: [prodsupportJuly23.properties]
INFO    2018-07-23 08:23:21,007 [main] com.m3.training.randomizer.TraineeRandomizer  - Team members: 0
INFO    2018-07-23 08:23:21,007 [main] com.m3.training.randomizer.TraineeRandomizer  - 
ERROR   2018-07-23 08:23:47,757 [main] com.m3.training.listgen.ListFromJson  - The requested file could not be read: [resources/prodsupportJuly23.properties]
ERROR   2018-07-23 08:23:47,760 [main] com.m3.training.listgen.ListFromJson  - The requested file contains no data: [resources/prodsupportJuly23.properties]
INFO    2018-07-23 08:23:47,761 [main] com.m3.training.randomizer.TraineeRandomizer  - Team members: 0
INFO    2018-07-23 08:23:47,761 [main] com.m3.training.randomizer.TraineeRandomizer  - 
ERROR   2018-07-23 08:25:13,070 [main] com.m3.training.listgen.ListFromJson  - The requested file could not be read: [resources\prodsupportJuly23.properties]
ERROR   2018-07-23 08:25:13,073 [main] com.m3.training.listgen.ListFromJson  - The requested file contains no data: [resources\prodsupportJuly23.properties]
INFO    2018-07-23 08:25:13,073 [main] com.m3.training.randomizer.TraineeRandomizer  - Team members: 0
INFO    2018-07-23 08:25:13,073 [main] com.m3.training.randomizer.TraineeRandomizer  - 
ERROR   2018-07-23 08:28:46,151 [main] com.m3.training.listgen.ListFromJson  - The requested file could not be found: [prodsupportJuly23.properties]
ERROR   2018-07-23 08:28:46,153 [main] com.m3.training.listgen.ListFromJson  - The requested file contains no data: [prodsupportJuly23.properties]
INFO    2018-07-23 08:28:46,154 [main] com.m3.training.randomizer.TraineeRandomizer  - Team members: 0
INFO    2018-07-23 08:28:46,154 [main] com.m3.training.randomizer.TraineeRandomizer  - 
ERROR   2018-07-23 08:29:59,546 [main] com.m3.training.listgen.ListFromJson  - The requested file could not be found: [resources.prodsupportJuly23.properties]
ERROR   2018-07-23 08:29:59,549 [main] com.m3.training.listgen.ListFromJson  - The requested file contains no data: [resources.prodsupportJuly23.properties]
INFO    2018-07-23 08:29:59,549 [main] com.m3.training.randomizer.TraineeRandomizer  - Team members: 0
INFO    2018-07-23 08:29:59,550 [main] com.m3.training.randomizer.TraineeRandomizer  - 
INFO    2018-07-23 08:32:12,494 [main] com.m3.training.randomizer.TraineeRandomizer  - Team members: 31
INFO    2018-07-23 08:32:12,496 [main] com.m3.training.randomizer.TraineeRandomizer  - Andreas, Brandon, Carlee, Charles, Daniella, Darshan, Emma, Faezeh, Kashif, Lakshay, 
Lorenka, Michael, Navneet, Neil, NicolasD, NicolasK, Raman, Ramanjit, Saif, Saurabh, 
Sharanya, Shida, Siying, Sureka, Tojin, Valeriya, Vedanshi, Vikas, Wissal, Zaheenabanu, 
Zion
INFO    2018-07-23 08:32:12,505 [main] root  - Selection: Kashif
INFO    2018-07-23 08:32:33,356 [main] com.m3.training.randomizer.TraineeRandomizer  - Team members: 31
INFO    2018-07-23 08:32:33,359 [main] com.m3.training.randomizer.TraineeRandomizer  - Andreas, Brandon, Carlee, Charles, Daniella, Darshan, Emma, Faezeh, Kashif, Lakshay, 
Lorenka, Michael, Navneet, Neil, NicolasD, NicolasK, Raman, Ramanjit, Saif, Saurabh, 
Sharanya, Shida, Siying, Sureka, Tojin, Valeriya, Vedanshi, Vikas, Wissal, Zaheenabanu, 
Zion
INFO    2018-07-23 08:32:33,367 [main] root  - Selection: Saif
INFO    2018-07-23 08:33:46,017 [main] com.m3.training.randomizer.TraineeRandomizer  - Team members: 31
INFO    2018-07-23 08:33:46,019 [main] com.m3.training.randomizer.TraineeRandomizer  - Andreas, Brandon, Carlee, Charles, Daniella, Darshan, Emma, Faezeh, Kashif, Lakshay, 
Lorenka, Michael, Navneet, Neil, NicolasD, NicolasK, Raman, Ramanjit, Saif, Saurabh, 
Sharanya, Shida, Siying, Sureka, Tojin, Valeriya, Vedanshi, Vikas, Wissal, Zaheenabanu, 
Zion
INFO    2018-07-23 08:33:46,026 [main] root  - Selection: Saif
INFO    2018-07-23 08:33:52,602 [main] root  - Selection: Kashif
INFO    2018-07-23 08:33:53,294 [main] root  - Selection: Michael
INFO    2018-07-23 08:33:53,735 [main] root  - Selection: Zion
INFO    2018-07-23 08:34:02,188 [main] com.m3.training.randomizer.TraineeRandomizer  - Team members: 31
INFO    2018-07-23 08:34:02,190 [main] com.m3.training.randomizer.TraineeRandomizer  - Andreas, Brandon, Carlee, Charles, Daniella, Darshan, Emma, Faezeh, Kashif, Lakshay, 
Lorenka, Michael, Navneet, Neil, NicolasD, NicolasK, Raman, Ramanjit, Saif, Saurabh, 
Sharanya, Shida, Siying, Sureka, Tojin, Valeriya, Vedanshi, Vikas, Wissal, Zaheenabanu, 
Zion
INFO    2018-07-23 08:34:02,197 [main] root  - Selection: Andreas
INFO    2018-07-23 09:17:49,664 [main] com.m3.training.randomizer.TraineeRandomizer  - Team members: 31
INFO    2018-07-23 09:17:49,667 [main] com.m3.training.randomizer.TraineeRandomizer  - Andreas, Brandon, Carlee, Charles, Daniella, Darshan, Emma, Faezeh, Kashif, Lakshay, 
Lorenka, Michael, Navneet, Neil, NicolasD, NicolasK, Raman, Ramanjit, Saif, Saurabh, 
Sharanya, Shida, Siying, Sureka, Tojin, Valeriya, Vedanshi, Vikas, Wissal, Zaheenabanu, 
Zion
INFO    2018-07-23 09:17:49,674 [main] root  - Selection: Neil
INFO    2018-07-23 09:25:50,540 [main] root  - Selection: Shida
INFO    2018-07-23 09:30:33,917 [main] root  - Selection: Sharanya
INFO    2018-07-23 09:34:32,043 [main] root  - Selection: Lakshay
INFO    2018-07-23 09:40:10,745 [main] root  - Selection: Wissal
INFO    2018-07-23 09:43:54,008 [main] root  - Selection: Charles
INFO    2018-07-23 09:50:02,718 [main] root  - Selection: Michael
INFO    2018-07-23 09:56:12,759 [main] root  - Selection: Brandon
INFO    2018-07-23 10:13:39,459 [main] root  - Selection: Siying
INFO    2018-07-23 10:16:40,658 [main] root  - Selection: Emma
INFO    2018-07-23 10:20:06,603 [main] root  - Selection: NicolasD
INFO    2018-07-23 10:23:38,702 [main] root  - Selection: Sureka
INFO    2018-07-23 10:25:58,939 [main] root  - Selection: Zion
INFO    2018-07-23 10:30:48,272 [main] root  - Selection: NicolasK
INFO    2018-07-23 10:34:42,086 [main] root  - Selection: Saif
INFO    2018-07-23 10:39:36,574 [main] root  - Selection: Tojin
INFO    2018-07-23 10:43:10,008 [main] root  - Selection: Vedanshi
INFO    2018-07-23 10:46:38,776 [main] root  - Selection: Kashif
INFO    2018-07-23 10:49:36,713 [main] root  - Selection: Daniella
INFO    2018-07-23 10:53:20,833 [main] root  - Selection: Saurabh
INFO    2018-07-23 11:00:14,876 [main] root  - Selection: Navneet
INFO    2018-07-23 11:03:47,022 [main] root  - Selection: Darshan
INFO    2018-07-23 11:07:23,951 [main] root  - Selection: Andreas
INFO    2018-07-23 11:21:28,012 [main] root  - Selection: Zaheenabanu
INFO    2018-07-23 11:25:48,412 [main] root  - Selection: Vikas
INFO    2018-07-23 11:29:35,624 [main] root  - Selection: Lorenka
INFO    2018-07-23 11:32:15,473 [main] root  - Selection: Raman
INFO    2018-07-23 11:37:11,667 [main] root  - Selection: Ramanjit
INFO    2018-07-23 11:39:52,321 [main] root  - Selection: Carlee
INFO    2018-07-23 11:43:56,982 [main] root  - Selection: Valeriya
INFO    2018-07-23 11:48:35,366 [main] root  - Selection: Faezeh
INFO    2018-07-23 15:39:25,167 [main] com.m3.training.randomizer.TraineeRandomizer  - Team members: 31
INFO    2018-07-23 15:39:25,169 [main] com.m3.training.randomizer.TraineeRandomizer  - Andreas, Brandon, Carlee, Charles, Daniella, Darshan, Emma, Faezeh, Kashif, Lakshay, 
Lorenka, Michael, Navneet, Neil, NicolasD, NicolasK, Raman, Ramanjit, Saif, Saurabh, 
Sharanya, Shida, Siying, Sureka, Tojin, Valeriya, Vedanshi, Vikas, Wissal, Zaheenabanu, 
Zion
INFO    2018-07-23 15:39:25,181 [main] root  - Selection: Tojin
INFO    2018-07-23 15:40:37,156 [main] com.m3.training.randomizer.TraineeRandomizer  - Team members: 31
INFO    2018-07-23 15:40:37,158 [main] com.m3.training.randomizer.TraineeRandomizer  - Andreas, Brandon, Carlee, Charles, Daniella, Darshan, Emma, Faezeh, Kashif, Lakshay, 
Lorenka, Michael, Navneet, Neil, NicolasD, NicolasK, Raman, Ramanjit, Saif, Saurabh, 
Sharanya, Shida, Siying, Sureka, Tojin, Valeriya, Vedanshi, Vikas, Wissal, Zaheenabanu, 
Zion
INFO    2018-07-23 15:40:37,165 [main] root  - Selection: Sureka
INFO    2018-07-23 15:42:12,626 [main] root  - Selection: Vedanshi
INFO    2018-07-24 15:01:51,782 [main] com.m3.training.randomizer.TraineeRandomizer  - Team members: 31
INFO    2018-07-24 15:01:51,784 [main] com.m3.training.randomizer.TraineeRandomizer  - Andreas, Brandon, Carlee, Charles, Daniella, Darshan, Emma, Faezeh, Kashif, Lakshay, 
Lorenka, Michael, Navneet, Neil, NicolasD, NicolasK, Raman, Ramanjit, Saif, Saurabh, 
Sharanya, Shida, Siying, Sureka, Tojin, Valeriya, Vedanshi, Vikas, Wissal, Zaheenabanu, 
Zion
INFO    2018-07-24 15:01:51,796 [main] root  - Selection: Sureka
INFO    2018-07-24 16:07:13,286 [main] root  - Selection: Siying
INFO    2018-07-25 10:01:02,990 [main] com.m3.training.randomizer.TraineeRandomizer  - Team members: 31
INFO    2018-07-25 10:01:02,993 [main] com.m3.training.randomizer.TraineeRandomizer  - Andreas, Brandon, Carlee, Charles, Daniella, Darshan, Emma, Faezeh, Kashif, Lakshay, 
Lorenka, Michael, Navneet, Neil, NicolasD, NicolasK, Raman, Ramanjit, Saif, Saurabh, 
Sharanya, Shida, Siying, Sureka, Tojin, Valeriya, Vedanshi, Vikas, Wissal, Zaheenabanu, 
Zion
INFO    2018-07-25 10:01:03,007 [main] root  - Selection: Zaheenabanu
INFO    2018-07-25 10:01:36,731 [main] root  - Selection: Wissal
INFO    2018-07-25 10:01:51,408 [main] root  - Selection: Brandon
INFO    2018-07-25 10:01:59,346 [main] root  - Selection: Darshan
INFO    2018-07-25 10:02:26,635 [main] root  - Selection: NicolasK
INFO    2018-07-25 10:02:37,929 [main] root  - Selection: Tojin
INFO    2018-07-25 10:02:48,853 [main] root  - Selection: Emma
INFO    2018-07-25 10:03:00,569 [main] root  - Selection: Vikas
INFO    2018-07-25 10:03:08,079 [main] root  - Selection: Zion
INFO    2018-07-25 10:03:40,082 [main] root  - Selection: Siying
INFO    2018-07-25 10:03:47,804 [main] root  - Selection: Vedanshi
INFO    2018-07-25 10:03:51,158 [main] root  - Selection: Raman
INFO    2018-07-25 10:05:02,493 [main] root  - Selection: Lakshay
INFO    2018-07-25 10:05:08,860 [main] root  - Selection: NicolasD
INFO    2018-07-25 10:05:16,174 [main] root  - Selection: Saif
INFO    2018-07-25 10:05:42,046 [main] root  - Selection: Shida
INFO    2018-07-25 10:05:48,673 [main] root  - Selection: Navneet
INFO    2018-07-25 10:05:53,423 [main] root  - Selection: Andreas
INFO    2018-07-25 10:06:02,576 [main] root  - Selection: Sharanya
INFO    2018-07-25 10:06:21,907 [main] root  - Selection: Kashif
INFO    2018-07-25 10:06:32,745 [main] root  - Selection: Neil
INFO    2018-07-25 10:06:47,157 [main] root  - Selection: Lorenka
INFO    2018-07-25 10:06:52,471 [main] root  - Selection: Charles
INFO    2018-07-25 10:06:59,343 [main] root  - Selection: Ramanjit
INFO    2018-07-25 10:07:24,478 [main] root  - Selection: Carlee
INFO    2018-07-25 10:07:30,981 [main] root  - Selection: Faezeh
INFO    2018-07-25 10:07:37,931 [main] root  - Selection: Saurabh
INFO    2018-07-25 10:07:58,885 [main] root  - Selection: Michael
INFO    2018-07-25 10:08:29,565 [main] root  - Selection: Valeriya
INFO    2018-07-25 10:08:44,821 [main] root  - Selection: Daniella
INFO    2018-07-25 10:08:47,462 [main] root  - Selection: Sureka
INFO    2018-07-25 10:58:57,206 [main] com.m3.training.randomizer.TraineeRandomizer  - Team members: 31
INFO    2018-07-25 10:58:57,208 [main] com.m3.training.randomizer.TraineeRandomizer  - Andreas, Brandon, Carlee, Charles, Daniella, Darshan, Emma, Faezeh, Kashif, Lakshay, 
Lorenka, Michael, Navneet, Neil, NicolasD, NicolasK, Raman, Ramanjit, Saif, Saurabh, 
Sharanya, Shida, Siying, Sureka, Tojin, Valeriya, Vedanshi, Vikas, Wissal, Zaheenabanu, 
Zion
INFO    2018-07-25 10:58:57,215 [main] root  - Selection: NicolasK
INFO    2018-07-25 11:37:32,604 [main] root  - Selection: Vedanshi
INFO    2018-07-25 17:39:57,105 [main] com.m3.training.randomizer.TraineeRandomizer  - Team members: 31
INFO    2018-07-25 17:39:57,108 [main] com.m3.training.randomizer.TraineeRandomizer  - Andreas, Brandon, Carlee, Charles, Daniella, Darshan, Emma, Faezeh, Kashif, Lakshay, 
Lorenka, Michael, Navneet, Neil, NicolasD, NicolasK, Raman, Ramanjit, Saif, Saurabh, 
Sharanya, Shida, Siying, Sureka, Tojin, Valeriya, Vedanshi, Vikas, Wissal, Zaheenabanu, 
Zion
INFO    2018-07-25 17:39:57,116 [main] root  - Selection: Zion
INFO    2018-07-25 17:40:06,945 [main] root  - Selection: Vedanshi
INFO    2018-07-25 17:40:09,561 [main] root  - Selection: Lorenka
INFO    2018-07-25 17:40:11,381 [main] root  - Selection: Vikas
INFO    2018-07-25 17:40:13,198 [main] root  - Selection: Ramanjit
INFO    2018-07-25 17:40:26,121 [main] root  - Selection: Raman
INFO    2018-07-25 17:40:27,838 [main] root  - Selection: Brandon
INFO    2018-07-25 17:40:29,427 [main] root  - Selection: NicolasD
INFO    2018-07-25 17:40:31,362 [main] root  - Selection: Emma
INFO    2018-07-25 17:40:33,400 [main] root  - Selection: Kashif
INFO    2018-07-25 17:40:43,634 [main] root  - Selection: Carlee
INFO    2018-07-25 17:40:45,682 [main] root  - Selection: Saurabh
INFO    2018-07-25 17:40:47,230 [main] root  - Selection: Faezeh
INFO    2018-07-25 17:40:49,303 [main] root  - Selection: Valeriya
INFO    2018-07-25 17:40:51,391 [main] root  - Selection: Neil
INFO    2018-07-25 17:41:09,532 [main] root  - Selection: Andreas
INFO    2018-07-25 17:41:11,267 [main] root  - Selection: Zaheenabanu
INFO    2018-07-25 17:41:13,525 [main] root  - Selection: Tojin
INFO    2018-07-25 17:41:16,293 [main] root  - Selection: Sharanya
INFO    2018-07-25 17:41:18,384 [main] root  - Selection: Shida
INFO    2018-07-25 17:41:27,610 [main] root  - Selection: Navneet
INFO    2018-07-25 17:41:29,218 [main] root  - Selection: Michael
INFO    2018-07-25 17:41:31,015 [main] root  - Selection: Daniella
INFO    2018-07-25 17:41:32,689 [main] root  - Selection: Saif
INFO    2018-07-25 17:41:34,618 [main] root  - Selection: Siying
INFO    2018-07-25 17:42:06,097 [main] root  - Selection: Darshan
INFO    2018-07-25 17:42:15,764 [main] root  - Selection: Sureka
INFO    2018-07-25 17:42:17,462 [main] root  - Selection: Wissal
INFO    2018-07-25 17:42:19,173 [main] root  - Selection: Lakshay
INFO    2018-07-25 17:42:20,532 [main] root  - Selection: NicolasK
INFO    2018-07-25 17:42:21,883 [main] root  - Selection: Charles
INFO    2018-07-26 10:23:29,805 [main] com.m3.training.randomizer.TraineeRandomizer  - Team members: 32
INFO    2018-07-26 10:23:29,807 [main] com.m3.training.randomizer.TraineeRandomizer  - Andreas, Brandon, Carlee, Charles, Daniella, Darshan, Emma, Faezeh, Gabriel, Kashif, 
Lakshay, Lorenka, Michael, Navneet, Neil, NicolasD, NicolasK, Raman, Ramanjit, Saif, 
Saurabh, Sharanya, Shida, Siying, Sureka, Tojin, Valeriya, Vedanshi, Vikas, Wissal, 
Zaheenabanu, Zion
INFO    2018-07-26 10:23:29,820 [main] root  - Selection: Carlee
INFO    2018-07-26 10:43:05,704 [main] root  - Selection: NicolasK
INFO    2018-07-26 11:28:55,741 [main] root  - Selection: Raman
INFO    2018-07-26 12:00:01,456 [main] root  - Selection: Kashif
INFO    2018-07-26 12:00:04,186 [main] root  - Selection: Sureka
INFO    2018-07-26 12:00:06,705 [main] root  - Selection: Charles
INFO    2018-07-26 12:00:08,009 [main] root  - Selection: Valeriya
INFO    2018-07-26 12:00:10,164 [main] root  - Selection: Tojin
INFO    2018-07-26 13:31:33,340 [main] root  - Selection: Sharanya
INFO    2018-07-26 13:31:38,382 [main] root  - Selection: Ramanjit
INFO    2018-07-26 15:32:55,196 [main] com.m3.training.randomizer.TraineeRandomizer  - Team members: 32
INFO    2018-07-26 15:32:55,198 [main] com.m3.training.randomizer.TraineeRandomizer  - Andreas, Brandon, Carlee, Charles, Daniella, Darshan, Emma, Faezeh, Gabriel, Kashif, 
Lakshay, Lorenka, Michael, Navneet, Neil, NicolasD, NicolasK, Raman, Ramanjit, Saif, 
Saurabh, Sharanya, Shida, Siying, Sureka, Tojin, Valeriya, Vedanshi, Vikas, Wissal, 
Zaheenabanu, Zion
INFO    2018-07-26 15:32:55,205 [main] root  - Selection: Vikas
INFO    2018-07-26 15:33:40,441 [main] root  - Selection: Raman
INFO    2018-07-26 15:39:18,292 [main] root  - Selection: Neil
INFO    2018-07-26 15:41:25,733 [main] root  - Selection: Sharanya
INFO    2018-07-26 15:43:34,927 [main] root  - Selection: Andreas
INFO    2018-07-26 15:45:09,064 [main] root  - Selection: Zion
INFO    2018-07-27 15:39:35,262 [main] com.m3.training.randomizer.TraineeRandomizer  - Team members: 32
INFO    2018-07-27 15:39:35,264 [main] com.m3.training.randomizer.TraineeRandomizer  - Andreas, Brandon, Carlee, Charles, Daniella, Darshan, Emma, Faezeh, Gabriel, Kashif, 
Lakshay, Lorenka, Michael, Navneet, Neil, NicolasD, NicolasK, Raman, Ramanjit, Saif, 
Saurabh, Sharanya, Shida, Siying, Sureka, Tojin, Valeriya, Vedanshi, Vikas, Wissal, 
Zaheenabanu, Zion
INFO    2018-07-27 15:39:35,276 [main] root  - Selection: Faezeh
INFO    2018-07-27 16:00:12,068 [main] root  - Selection: Tojin
INFO    2018-07-27 16:19:25,197 [main] root  - Selection: Wissal
INFO    2018-07-27 16:31:34,674 [main] root  - Selection: Saif
INFO    2018-07-27 16:31:37,586 [main] root  - Selection: Lakshay
INFO    2018-07-27 16:50:04,819 [main] root  - Selection: Andreas
INFO    2018-07-27 17:39:35,249 [main] root  - Selection: Emma
INFO    2018-07-27 17:39:37,688 [main] root  - Selection: Neil
INFO    2018-07-27 17:39:39,395 [main] root  - Selection: Michael
INFO    2018-07-27 17:39:42,151 [main] root  - Selection: Darshan
INFO    2018-07-27 17:53:42,473 [main] root  - Selection: NicolasK
INFO    2018-07-30 08:27:23,901 [main] com.m3.training.randomizer.TraineeRandomizer  - Team members: 32
INFO    2018-07-30 08:27:23,905 [main] com.m3.training.randomizer.TraineeRandomizer  - Andreas, Brandon, Carlee, Charles, Daniella, Darshan, Emma, Faezeh, Gabriel, Kashif, 
Lakshay, Lorenka, Michael, Navneet, Neil, NicolasD, NicolasK, Raman, Ramanjit, Saif, 
Saurabh, Sharanya, Shida, Siying, Sureka, Tojin, Valeriya, Vedanshi, Vikas, Wissal, 
Zaheenabanu, Zion
INFO    2018-07-30 08:27:23,917 [main] root  - Selection: Saif
INFO    2018-07-30 08:27:30,748 [main] root  - Selection: Michael
INFO    2018-07-30 08:27:38,836 [main] root  - Selection: Sharanya
INFO    2018-07-30 08:27:50,929 [main] root  - Selection: Zion
INFO    2018-07-30 08:27:54,167 [main] root  - Selection: Ramanjit
INFO    2018-07-30 08:28:48,986 [main] root  - Selection: Faezeh
INFO    2018-07-30 08:28:54,154 [main] root  - Selection: Carlee
INFO    2018-07-30 08:29:35,240 [main] root  - Selection: Sureka
INFO    2018-07-30 08:29:48,749 [main] root  - Selection: Charles
INFO    2018-07-30 08:29:52,164 [main] root  - Selection: Zaheenabanu
INFO    2018-07-30 08:30:05,500 [main] root  - Selection: Gabriel
INFO    2018-07-30 08:30:54,541 [main] root  - Selection: Darshan
INFO    2018-07-30 08:30:58,782 [main] root  - Selection: Lakshay
INFO    2018-07-30 08:31:04,542 [main] root  - Selection: NicolasD
INFO    2018-07-30 08:31:59,974 [main] root  - Selection: Vikas
INFO    2018-07-30 08:32:10,651 [main] root  - Selection: Wissal
INFO    2018-07-30 08:32:18,148 [main] root  - Selection: Andreas
INFO    2018-07-30 08:32:26,506 [main] root  - Selection: Emma
INFO    2018-07-30 08:32:32,868 [main] root  - Selection: NicolasK
INFO    2018-07-30 08:32:37,334 [main] root  - Selection: Daniella
INFO    2018-07-30 08:32:38,805 [main] root  - Selection: Brandon
INFO    2018-07-30 08:33:45,503 [main] root  - Selection: Siying
INFO    2018-07-30 08:33:52,476 [main] root  - Selection: Neil
INFO    2018-07-30 08:33:57,173 [main] root  - Selection: Raman
INFO    2018-07-30 08:34:10,860 [main] root  - Selection: Valeriya
INFO    2018-07-30 08:34:32,956 [main] root  - Selection: Saurabh
INFO    2018-07-30 08:35:11,059 [main] root  - Selection: Tojin
INFO    2018-07-30 08:35:20,292 [main] root  - Selection: Navneet
INFO    2018-07-30 08:35:29,708 [main] root  - Selection: Vedanshi
INFO    2018-07-30 08:35:31,322 [main] root  - Selection: Shida
INFO    2018-07-30 08:35:51,862 [main] root  - Selection: Lorenka
INFO    2018-07-30 08:36:03,383 [main] root  - Selection: Kashif
INFO    2018-08-28 08:53:02,863 [main] com.m3.training.randomizer.TraineeRandomizer  - Team members: 32
INFO    2018-08-28 08:53:02,868 [main] com.m3.training.randomizer.TraineeRandomizer  - Andreas, Brandon, Carlee, Charles, Daniella, Darshan, Emma, Faezeh, Gabriel, Kashif, 
Lakshay, Lorenka, Michael, Navneet, Neil, NicolasD, NicolasK, Raman, Ramanjit, Saif, 
Saurabh, Sharanya, Shida, Siying, Sureka, Tojin, Valeriya, Vedanshi, Vikas, Wissal, 
Zaheenabanu, Zion
INFO    2018-08-28 08:53:02,878 [main] root  - Selection: Carlee
INFO    2018-08-28 11:51:38,034 [main] root  - Selection: Saurabh
INFO    2018-08-28 11:51:38,994 [main] root  - Selection: Valeriya
INFO    2018-08-28 11:51:39,674 [main] root  - Selection: Michael
INFO    2018-08-28 11:51:40,218 [main] root  - Selection: Kashif
INFO    2018-08-28 11:51:40,658 [main] root  - Selection: Tojin
INFO    2018-08-28 11:51:41,130 [main] root  - Selection: Siying
INFO    2018-08-28 11:51:41,546 [main] root  - Selection: Raman
INFO    2018-08-28 11:51:42,018 [main] root  - Selection: Andreas
INFO    2018-08-28 11:51:42,458 [main] root  - Selection: Vikas
INFO    2018-08-28 11:51:42,914 [main] root  - Selection: Lakshay
INFO    2018-08-28 11:51:43,346 [main] root  - Selection: Faezeh
INFO    2018-08-28 11:51:43,770 [main] root  - Selection: Ramanjit
INFO    2018-08-28 11:51:44,162 [main] root  - Selection: Sureka
INFO    2018-08-28 11:51:44,586 [main] root  - Selection: Navneet
INFO    2018-08-28 11:51:45,002 [main] root  - Selection: Zion
INFO    2018-08-28 11:51:45,483 [main] root  - Selection: Zaheenabanu
INFO    2018-08-28 11:51:45,946 [main] root  - Selection: Vedanshi
INFO    2018-08-28 11:51:46,491 [main] root  - Selection: Gabriel
INFO    2018-08-28 11:51:47,050 [main] root  - Selection: NicolasD
INFO    2018-08-28 11:51:47,579 [main] root  - Selection: Daniella
INFO    2018-08-28 11:51:48,170 [main] root  - Selection: NicolasK
INFO    2018-08-28 11:51:48,754 [main] root  - Selection: Charles
INFO    2018-08-28 11:51:49,569 [main] root  - Selection: Brandon
INFO    2018-08-28 11:51:50,370 [main] root  - Selection: Neil
INFO    2018-08-28 11:51:51,233 [main] root  - Selection: Shida
INFO    2018-08-28 11:51:52,298 [main] root  - Selection: Darshan
INFO    2018-08-28 11:51:52,842 [main] root  - Selection: Emma
INFO    2018-08-28 11:51:53,458 [main] root  - Selection: Saif
INFO    2018-08-28 11:51:54,178 [main] root  - Selection: Sharanya
INFO    2018-08-28 11:51:55,202 [main] root  - Selection: Wissal
INFO    2018-08-28 11:51:55,203 [main] root  - And finally: Lorenka
INFO    2018-08-28 11:52:19,746 [main] com.m3.training.randomizer.TraineeRandomizer  - Team members: 32
INFO    2018-08-28 11:52:19,749 [main] com.m3.training.randomizer.TraineeRandomizer  - Andreas, Brandon, Carlee, Charles, Daniella, Darshan, Emma, Faezeh, Gabriel, Kashif, 
Lakshay, Lorenka, Michael, Navneet, Neil, NicolasD, NicolasK, Raman, Ramanjit, Saif, 
Saurabh, Sharanya, Shida, Siying, Sureka, Tojin, Valeriya, Vedanshi, Vikas, Wissal, 
Zaheenabanu, Zion
INFO    2018-08-28 11:52:19,758 [main] root  - Selection: Ramanjit
INFO    2018-08-28 11:52:33,058 [main] root  - Selection: Wissal
INFO    2018-08-28 11:52:34,034 [main] root  - Selection: Emma
INFO    2018-08-28 11:52:34,570 [main] root  - Selection: Lakshay
INFO    2018-08-28 11:52:34,874 [main] root  - Selection: NicolasK
INFO    2018-08-28 11:52:35,179 [main] root  - Selection: Zaheenabanu
INFO    2018-08-28 11:52:35,514 [main] root  - Selection: Shida
INFO    2018-08-28 11:52:35,850 [main] root  - Selection: Valeriya
INFO    2018-08-28 11:52:36,178 [main] root  - Selection: Saurabh
INFO    2018-08-28 11:52:41,787 [main] root  - Selection: Daniella
INFO    2018-08-28 11:52:42,458 [main] root  - Selection: Neil
INFO    2018-08-28 11:52:43,002 [main] root  - Selection: Andreas
INFO    2018-08-28 11:52:43,450 [main] root  - Selection: Brandon
INFO    2018-08-28 11:52:43,859 [main] root  - Selection: Saif
INFO    2018-08-28 11:52:44,283 [main] root  - Selection: Carlee
INFO    2018-08-28 11:52:44,707 [main] root  - Selection: Vikas
INFO    2018-08-28 11:52:45,114 [main] root  - Selection: Lorenka
INFO    2018-08-28 11:52:45,547 [main] root  - Selection: Darshan
INFO    2018-08-28 11:52:46,066 [main] root  - Selection: Vedanshi
INFO    2018-08-28 11:52:46,618 [main] root  - Selection: Michael
INFO    2018-08-28 11:52:47,139 [main] root  - Selection: Kashif
INFO    2018-08-28 11:52:47,754 [main] root  - Selection: Raman
INFO    2018-08-28 11:52:48,219 [main] root  - Selection: Siying
INFO    2018-08-28 11:52:48,771 [main] root  - Selection: Charles
INFO    2018-08-28 11:52:49,298 [main] root  - Selection: Sharanya
INFO    2018-08-28 11:52:49,914 [main] root  - Selection: Tojin
INFO    2018-08-28 11:52:50,410 [main] root  - Selection: NicolasD
INFO    2018-08-28 11:52:50,962 [main] root  - Selection: Faezeh
INFO    2018-08-28 11:52:51,562 [main] root  - Selection: Sureka
INFO    2018-08-28 11:52:52,202 [main] root  - Selection: Gabriel
INFO    2018-08-28 11:52:52,786 [main] root  - Selection: Zion
INFO    2018-08-28 11:52:52,787 [main] root  - 
Finally: Navneet
ERROR   2018-09-19 12:24:26,432 [main] com.m3.training.listgen.ListFromJson  - The requested file could not be found: [mixedSept17.properties]
ERROR   2018-09-19 12:24:26,435 [main] com.m3.training.listgen.ListFromJson  - The requested file contains no data: [mixedSept17.properties]
INFO    2018-09-19 12:24:26,435 [main] com.m3.training.randomizer.TraineeRandomizer  - Team members: 0
INFO    2018-09-19 12:24:26,436 [main] com.m3.training.randomizer.TraineeRandomizer  - 
INFO    2018-09-19 12:25:18,071 [main] com.m3.training.randomizer.TraineeRandomizer  - Team members: 18
INFO    2018-09-19 12:25:18,074 [main] com.m3.training.randomizer.TraineeRandomizer  - Andrew, Charles, Christine, Clarissa, Daniel, EricD, EricI, Eshwar, John, Jungwon, 
Justin, Mahad, Matthew, Navin, Rifat, Rohan, Sidharth, Wilson
INFO    2018-09-19 12:25:18,085 [main] root  - Selection: Jungwon
INFO    2018-09-19 12:27:25,271 [main] com.m3.training.randomizer.TraineeRandomizer  - Team members: 19
INFO    2018-09-19 12:27:25,274 [main] com.m3.training.randomizer.TraineeRandomizer  - Andrew, Charles, Christine, Clarissa, Daniel, EricD, EricI, Eshwar, John, Jungwon, 
Justin, Mahad, Matthew, Navin, Rifat, Rohan, Sidharth, Victor, Wilson
INFO    2018-09-19 12:27:25,284 [main] root  - Selection: John
INFO    2018-09-19 12:27:28,347 [main] root  - Selection: Charles
INFO    2018-09-19 12:27:29,065 [main] root  - Selection: Rifat
INFO    2018-09-19 12:27:29,762 [main] root  - Selection: Justin
INFO    2018-09-19 12:27:30,393 [main] root  - Selection: EricD
INFO    2018-09-19 12:27:30,937 [main] root  - Selection: Navin
INFO    2018-09-19 12:27:31,473 [main] root  - Selection: Eshwar
INFO    2018-09-19 12:27:32,018 [main] root  - Selection: Clarissa
INFO    2018-09-19 12:27:32,673 [main] root  - Selection: Jungwon
INFO    2018-09-19 12:27:33,266 [main] root  - Selection: Daniel
INFO    2018-09-19 12:27:33,882 [main] root  - Selection: Rohan
INFO    2018-09-19 12:27:34,529 [main] root  - Selection: Wilson
INFO    2018-09-19 12:27:35,082 [main] root  - Selection: Andrew
INFO    2018-09-19 12:27:35,675 [main] root  - Selection: Matthew
INFO    2018-09-19 12:27:36,322 [main] root  - Selection: Victor
INFO    2018-09-19 12:27:37,497 [main] root  - Selection: EricI
INFO    2018-09-19 12:27:38,282 [main] root  - Selection: Mahad
INFO    2018-09-19 12:27:38,802 [main] root  - Selection: Sidharth
INFO    2018-09-19 12:27:38,802 [main] root  - 
Finally: Christine
INFO    2018-09-19 12:50:50,372 [main] com.m3.training.randomizer.TraineeRandomizer  - Team members: 19
INFO    2018-09-19 12:50:50,377 [main] com.m3.training.randomizer.TraineeRandomizer  - Andrew, Charles, Christine, Clarissa, Daniel, EricD, EricI, Eshwar, John, Jungwon, 
Justin, Mahad, Matthew, Navin, Rifat, Rohan, Sidharth, Victor, Wilson
INFO    2018-09-19 12:50:50,393 [main] root  - Selection: Rifat
INFO    2018-09-19 12:51:01,294 [main] root  - Selection: Clarissa
INFO    2018-09-19 12:51:01,533 [main] root  - Selection: Sidharth
INFO    2018-09-19 12:51:01,740 [main] root  - Selection: Navin
INFO    2018-09-19 12:51:01,979 [main] root  - Selection: Mahad
INFO    2018-09-19 12:51:02,197 [main] root  - Selection: Wilson
INFO    2018-09-19 12:51:02,453 [main] root  - Selection: EricI
INFO    2018-09-19 12:51:02,708 [main] root  - Selection: Justin
INFO    2018-09-19 12:51:03,156 [main] root  - Selection: Eshwar
INFO    2018-09-19 12:51:03,533 [main] root  - Selection: Christine
INFO    2018-09-19 12:51:04,143 [main] root  - Selection: EricD
INFO    2018-09-19 12:51:04,644 [main] root  - Selection: Matthew
INFO    2018-09-19 12:51:05,148 [main] root  - Selection: Victor
INFO    2018-09-19 12:51:05,532 [main] root  - Selection: John
INFO    2018-09-19 12:51:06,228 [main] root  - Selection: Rohan
INFO    2018-09-19 12:51:06,692 [main] root  - Selection: Charles
INFO    2018-09-19 12:51:07,213 [main] root  - Selection: Jungwon
INFO    2018-09-19 12:51:07,716 [main] root  - Selection: Daniel
INFO    2018-09-19 12:51:07,717 [main] root  - 
Finally: Andrew
INFO    2018-09-19 12:55:54,694 [main] com.m3.training.randomizer.TraineeRandomizer  - Team members: 19
INFO    2018-09-19 12:55:54,694 [main] com.m3.training.randomizer.TraineeRandomizer  - Andrew, Charles, Christine, Clarissa, Daniel, EricD, EricI, Eshwar, John, Jungwon, 
Justin, Mahad, Matthew, Navin, Rifat, Rohan, Sidharth, Victor, Wilson
INFO    2018-09-19 12:55:54,709 [main] root  - Selection: Christine
INFO    2018-09-19 12:55:56,771 [main] root  - Selection: Sidharth
INFO    2018-09-19 12:55:56,891 [main] root  - Selection: Mahad
INFO    2018-09-19 12:55:57,047 [main] root  - Selection: Rohan
INFO    2018-09-19 12:55:57,188 [main] root  - Selection: Charles
INFO    2018-09-19 12:55:57,328 [main] root  - Selection: Daniel
INFO    2018-09-19 12:55:57,469 [main] root  - Selection: EricD
INFO    2018-09-19 12:55:57,610 [main] root  - Selection: Matthew
INFO    2018-09-19 12:55:57,766 [main] root  - Selection: EricI
INFO    2018-09-19 12:55:57,906 [main] root  - Selection: Clarissa
INFO    2018-09-19 12:55:58,067 [main] root  - Selection: John
INFO    2018-09-19 12:55:58,208 [main] root  - Selection: Wilson
INFO    2018-09-19 12:55:58,380 [main] root  - Selection: Victor
INFO    2018-09-19 12:55:58,536 [main] root  - Selection: Navin
INFO    2018-09-19 12:55:58,708 [main] root  - Selection: Rifat
INFO    2018-09-19 12:55:58,911 [main] root  - Selection: Andrew
INFO    2018-09-19 12:55:59,330 [main] root  - Selection: Justin
INFO    2018-09-19 12:55:59,533 [main] root  - Selection: Eshwar
INFO    2018-09-19 12:55:59,533 [main] root  - 
Finally: Jungwon
INFO    2018-09-19 14:47:42,635 [main] com.m3.training.randomizer.TraineeRandomizer  - Team members: 19
INFO    2018-09-19 14:47:42,645 [main] com.m3.training.randomizer.TraineeRandomizer  - Andrew, Charles, Christine, Clarissa, Daniel, EricD, EricI, Eshwar, John, Jungwon, 
Justin, Mahad, Matthew, Navin, Rifat, Rohan, Sidharth, Victor, Wilson
INFO    2018-09-19 14:47:42,672 [main] root  - Selection: Sidharth
INFO    2018-09-19 14:49:26,007 [main] root  - Selection: Christine
INFO    2018-09-19 14:51:26,701 [main] root  - Selection: Rohan
INFO    2018-09-19 14:52:56,041 [main] root  - Selection: Matthew
INFO    2018-09-19 14:53:36,520 [main] root  - Selection: Wilson
INFO    2018-09-19 14:55:35,278 [main] root  - Selection: Andrew
INFO    2018-09-19 14:56:04,614 [main] root  - Selection: Mahad
INFO    2018-09-19 16:55:50,301 [main] com.m3.training.randomizer.TraineeRandomizer  - Team members: 19
INFO    2018-09-19 16:55:50,305 [main] com.m3.training.randomizer.TraineeRandomizer  - Andrew, Charles, Christine, Clarissa, Daniel, EricD, EricI, Eshwar, John, Jungwon, 
Justin, Mahad, Matthew, Navin, Rifat, Rohan, Sidharth, Victor, Wilson
INFO    2018-09-19 16:55:50,316 [main] root  - Selection: Justin
INFO    2018-09-19 16:57:29,729 [main] root  - Selection: Andrew
INFO    2018-09-19 16:59:04,804 [main] root  - Selection: Daniel
INFO    2018-09-19 17:01:42,874 [main] root  - Selection: EricD
INFO    2018-09-20 08:51:29,762 [main] com.m3.training.randomizer.TraineeRandomizer  - Team members: 19
INFO    2018-09-20 08:51:29,766 [main] com.m3.training.randomizer.TraineeRandomizer  - Andrew, Charles, Christine, Clarissa, Daniel, EricD, EricI, Eshwar, John, Jungwon, 
Justin, Mahad, Matthew, Navin, Rifat, Rohan, Sidharth, Victor, Wilson
INFO    2018-09-20 08:51:29,777 [main] root  - Selection: Wilson
INFO    2018-09-20 08:51:48,144 [main] root  - Selection: Justin
INFO    2018-09-20 08:51:54,965 [main] root  - Selection: Victor
INFO    2018-09-20 08:52:05,593 [main] root  - Selection: Christine
INFO    2018-09-20 08:53:20,323 [main] root  - Selection: Mahad
INFO    2018-09-20 08:53:35,160 [main] root  - Selection: Rifat
INFO    2018-09-20 09:09:06,488 [main] com.m3.training.randomizer.TraineeRandomizer  - Team members: 19
INFO    2018-09-20 09:09:06,493 [main] com.m3.training.randomizer.TraineeRandomizer  - Andrew, Charles, Christine, Clarissa, Daniel, EricD, EricI, Eshwar, John, Jungwon, 
Justin, Mahad, Matthew, Navin, Rifat, Rohan, Sidharth, Victor, Wilson
INFO    2018-09-20 09:09:06,503 [main] root  - Selection: Jungwon
INFO    2018-09-20 09:09:09,325 [main] com.m3.training.randomizer.TraineeRandomizer  - Team members: 19
INFO    2018-09-20 09:09:09,332 [main] com.m3.training.randomizer.TraineeRandomizer  - Andrew, Charles, Christine, Clarissa, Daniel, EricD, EricI, Eshwar, John, Jungwon, 
Justin, Mahad, Matthew, Navin, Rifat, Rohan, Sidharth, Victor, Wilson
INFO    2018-09-20 09:09:09,344 [main] root  - Selection: Rifat
INFO    2018-09-20 09:09:15,317 [main] root  - Selection: Victor
INFO    2018-09-20 09:09:18,472 [main] root  - Selection: EricI
INFO    2018-09-20 09:09:19,685 [main] root  - Selection: Sidharth
INFO    2018-09-20 09:09:21,567 [main] root  - Selection: John
INFO    2018-09-20 09:09:22,592 [main] root  - Selection: Matthew
INFO    2018-09-20 09:09:32,446 [main] root  - Selection: EricD
INFO    2018-09-20 09:09:33,755 [main] root  - Selection: Daniel
INFO    2018-09-20 09:09:35,620 [main] root  - Selection: Christine
INFO    2018-09-20 09:09:36,399 [main] root  - Selection: Jungwon
INFO    2018-09-20 09:09:38,493 [main] root  - Selection: Charles
INFO    2018-09-20 09:09:39,162 [main] root  - Selection: Wilson
INFO    2018-09-20 09:09:40,851 [main] root  - Selection: Navin
INFO    2018-09-20 09:09:41,504 [main] root  - Selection: Clarissa
INFO    2018-09-20 09:09:43,415 [main] root  - Selection: Mahad
INFO    2018-09-20 09:09:44,359 [main] root  - Selection: Eshwar
INFO    2018-09-20 09:09:45,770 [main] root  - Selection: Justin
INFO    2018-09-20 09:09:46,499 [main] root  - Selection: Andrew
INFO    2018-09-20 09:09:46,499 [main] root  - 
Finally: Rohan
%-7p %d [%t] %c %x - %m%n
INFO    2018-09-20 09:23:07,322 [main] com.m3.training.randomizer.TraineeRandomizer  - Team members: 19
INFO    2018-09-20 09:23:07,327 [main] com.m3.training.randomizer.TraineeRandomizer  - Andrew, Charles, Christine, Clarissa, Daniel, EricD, EricI, Eshwar, John, Jungwon, 
Justin, Mahad, Matthew, Navin, Rifat, Rohan, Sidharth, Victor, Wilson
INFO    2018-09-20 09:23:07,341 [main] root  - Selection: Rifat
INFO    2018-09-20 09:24:45,693 [main] root  - Selection: Jungwon
INFO    2018-09-20 09:26:04,688 [main] root  - Selection: Victor
INFO    2018-09-20 09:27:30,148 [main] root  - Selection: Clarissa
INFO    2018-09-20 09:28:15,232 [main] root  - Selection: Charles
INFO    2018-09-20 09:28:32,952 [main] root  - Selection: Matthew
INFO    2018-09-20 09:28:46,708 [main] root  - Selection: Daniel
INFO    2018-09-20 09:29:38,505 [main] root  - Selection: EricD
INFO    2018-09-20 09:29:44,659 [main] root  - Selection: Wilson
INFO    2018-09-20 11:11:21,566 [main] com.m3.training.randomizer.TraineeRandomizer  - Team members: 19
INFO    2018-09-20 11:11:21,571 [main] com.m3.training.randomizer.TraineeRandomizer  - Andrew, Charles, Christine, Clarissa, Daniel, EricD, EricI, Eshwar, John, Jungwon, 
Justin, Mahad, Matthew, Navin, Rifat, Rohan, Sidharth, Victor, Wilson
INFO    2018-09-20 11:11:21,586 [main] root  - Selection: EricD
INFO    2018-09-20 11:21:31,604 [main] root  - Selection: Daniel
INFO    2018-09-20 11:48:12,987 [main] com.m3.training.randomizer.TraineeRandomizer  - Team members: 19
INFO    2018-09-20 11:48:13,003 [main] com.m3.training.randomizer.TraineeRandomizer  - Andrew, Charles, Christine, Clarissa, Daniel, EricD, EricI, Eshwar, John, Jungwon, 
Justin, Mahad, Matthew, Navin, Rifat, Rohan, Sidharth, Victor, Wilson
INFO    2018-09-20 11:48:13,013 [main] root  - Selection: Eshwar
INFO    2018-09-20 11:51:04,605 [main] root  - Selection: Navin
INFO    2018-09-20 11:59:30,158 [main] root  - Selection: Andrew
INFO    2018-09-20 12:04:10,932 [main] root  - Selection: EricD
INFO    2018-09-20 12:07:09,312 [main] root  - Selection: Jungwon
INFO    2018-09-20 12:10:35,626 [main] root  - Selection: Mahad
INFO    2018-09-20 12:15:16,861 [main] root  - Selection: Sidharth
INFO    2018-09-20 12:19:08,788 [main] root  - Selection: Victor
INFO    2018-09-20 12:21:50,469 [main] root  - Selection: Daniel
INFO    2018-09-20 12:24:06,564 [main] root  - Selection: Justin
INFO    2018-09-20 12:27:23,732 [main] root  - Selection: Charles
INFO    2018-09-20 12:33:37,926 [main] root  - Selection: Rohan
INFO    2018-09-20 12:38:01,870 [main] root  - Selection: Rifat
INFO    2018-09-20 12:42:01,918 [main] root  - Selection: Matthew
INFO    2018-09-20 12:44:44,249 [main] root  - Selection: Christine
INFO    2018-09-20 12:49:26,890 [main] root  - Selection: John
INFO    2018-09-20 12:49:31,781 [main] root  - Selection: EricI
INFO    2018-09-20 12:52:57,867 [main] root  - Selection: Wilson
INFO    2018-09-20 12:52:57,871 [main] root  - 
Finally: Clarissa
INFO    2018-09-24 16:26:26,242 [main] com.m3.training.randomizer.TraineeRandomizer  - Team members: 9
INFO    2018-09-24 16:26:26,247 [main] com.m3.training.randomizer.TraineeRandomizer  - Charles, Chris, Eric, Eshwar, John, Jungwon, Justin, Rohan, Wilson
INFO    2018-09-24 16:26:26,256 [main] root  - Selection: Jungwon
INFO    2018-10-01 13:47:13,454 [main] com.m3.training.randomizer.TraineeRandomizer  - Team members: 12
INFO    2018-10-01 13:47:13,458 [main] com.m3.training.randomizer.TraineeRandomizer  - Anup, Awjeet, Charles, Chris, Danny, Eric, Eshwar, John, Jungwon, Justin, Rohan, 
Ruhi
INFO    2018-10-01 13:47:13,473 [main] root  - Selection: Eshwar
INFO    2018-10-03 10:38:20,554 [main] com.m3.training.randomizer.TraineeRandomizer  - Team members: 12
INFO    2018-10-03 10:38:20,556 [main] com.m3.training.randomizer.TraineeRandomizer  - Anup, Awjeet, Charles, Chris, Danny, Eric, Eshwar, John, Jungwon, Justin, Rohan, 
Ruhi
INFO    2018-10-03 10:38:20,569 [main] root  - Selection: Jungwon
